…
There are multiple ways of calculating the total number of steps per day. One of them is by using the dplyr package. It is loaded with the following code:

```r
library(dplyr)
```

Next, let's summarize and view the results:

```r
steps_per_day <- summarise(group_by(activity, date), total_steps=sum(steps))
steps_per_day
```

```
## # A tibble: 61 x 2
##    date                total_steps
##    <dttm>                    <int>
##  1 2012-10-01 00:00:00          NA
##  2 2012-10-02 00:00:00         126
##  3 2012-10-03 00:00:00       11352
##  4 2012-10-04 00:00:00       12116
##  5 2012-10-05 00:00:00       13294
##  6 2012-10-06 00:00:00       15420
##  7 2012-10-07 00:00:00       11015
##  8 2012-10-08 00:00:00          NA
##  9 2012-10-09 00:00:00       12811
## 10 2012-10-10 00:00:00        9900
## # ... with 51 more rows
```
…
### Subtask 3: Calculate and report the mean and median of the total number of steps taken per day

The calculation of mean and median of the total number of steps taken per day would also be made by using the dplyr package function summarise:


```r
steps_per_day_mm <- summarise(group_by(activity, date), total_steps=sum(steps), mean=mean(steps), median=median(steps))
steps_per_day_mm
```

```
## # A tibble: 61 x 4
##    date                total_steps   mean median
##    <dttm>                    <int>  <dbl>  <dbl>
##  1 2012-10-01 00:00:00          NA NA        NA 
##  2 2012-10-02 00:00:00         126  0.438     0.
##  3 2012-10-03 00:00:00       11352 39.4       0.
##  4 2012-10-04 00:00:00       12116 42.1       0.
##  5 2012-10-05 00:00:00       13294 46.2       0.
##  6 2012-10-06 00:00:00       15420 53.5       0.
##  7 2012-10-07 00:00:00       11015 38.2       0.
##  8 2012-10-08 00:00:00          NA NA        NA 
##  9 2012-10-09 00:00:00       12811 44.5       0.
## 10 2012-10-10 00:00:00        9900 34.4       0.
## # ... with 51 more rows
```
…
The calculation of the mean and would also be obtained using the summarise function. The result is printed afterwards.


```r
steps_per_day_mm_no_na <- summarise(group_by(activity2, date), total_steps=sum(steps), mean=mean(steps), median=median(steps))
steps_per_day_mm_no_na
```

```
## # A tibble: 61 x 4
##    date                total_steps   mean median
##    <dttm>                    <dbl>  <dbl>  <dbl>
##  1 2012-10-01 00:00:00      10766. 37.4     37.4
##  2 2012-10-02 00:00:00        126.  0.438    0. 
##  3 2012-10-03 00:00:00      11352. 39.4      0. 
##  4 2012-10-04 00:00:00      12116. 42.1      0. 
##  5 2012-10-05 00:00:00      13294. 46.2      0. 
##  6 2012-10-06 00:00:00      15420. 53.5      0. 
##  7 2012-10-07 00:00:00      11015. 38.2      0. 
##  8 2012-10-08 00:00:00      10766. 37.4     37.4
##  9 2012-10-09 00:00:00      12811. 44.5      0. 
## 10 2012-10-10 00:00:00       9900. 34.4      0. 
## # ... with 51 more rows
```
…
